-38.64291 -4.289206 Barreira
-38.127075 -4.177415 Beberibe
-39.733652 -5.112583 Boa Viagem
-39.315505 -4.351618 Canindé
-39.191166 -4.225141 Caridade
-39.491619 -6.524282 Cariús
-38.241178 -4.129666 Cascavel
-39.873644 -6.122911 Catarina
-40.199988 -4.64336 Catunda
-38.661931 -3.727966 Caucaia
-38.717856 -6.782648 Ipaumirim
-39.060869 -6.600342 Cedro
-39.134397 -4.839062 Choró
-38.498572 -4.28873 Chorozinho
-37.832957 -4.671461 Itaiçaba
-39.565114 -6.92146 Farias Brito
-40.263405 -3.799447 Forquilha
-38.512 -3.756 Fortaleza
-37.798056 -4.451256 Fortim
-39.585531 -3.683137 Itapajé
-40.837205 -3.127879 Granja
-39.21439 -6.873862 Granjeiro
-39.28262 -7.575989 Jardim
-40.405595 -4.409579 Hidrolândia
-38.470674 -4.120896 Horizonte
-38.750085 -4.803764 Ibaretama
-38.636249 -4.969993 Ibicuitinga
-38.855352 -6.396271 Icó
-40.308526 -5.387889 Independência
-39.002871 -7.6797 Jati
-40.705877 -4.317484 Ipu
-40.711764 -4.538021 Ipueiras
-38.291943 -5.8124 Iracema
-39.784332 -3.747367 Irauçuba
-38.529763 -3.965768 Itaitinga
-39.583571 -3.499329 Itapipoca
-38.928113 -4.555165 Itapiúna
-39.916654 -2.924797 Itarema
-39.620155 -4.526076 Itatira
-38.763861 -5.605096 Jaguaretama
-38.604798 -5.660093 Jaguaribara
-38.622653 -5.902134 Jaguaribe
-39.518679 -6.515229 Jucás
-39.572542 -4.846012 Madalena
-38.625901 -3.86699 Maracanaú
-38.682911 -3.891432 Maranguape
-40.15824 -3.128501 Marco
-40.689581 -3.225198 Martinópole
-38.455875 -3.892501 Eusébio
-39.966267 -3.568674 Miraíma
-39.630009 -5.738442 Mombaça
-40.064637 -4.791022 Monsenhor Tabosa
-38.370158 -5.09736 Morada Nova
-40.512742 -2.793312 Jijoca de Jericoacoara
-40.745222 -3.902714 Mucambo
-39.67128 -7.084145 Nova Olinda
-40.562118 -4.705807 Nova Russas
-40.771296 -5.525519 Novo Oriente
-38.593256 -4.48523 Ocara
-38.464988 -4.171073 Pacajus
-38.970619 -6.744801 Lavras da Mangabeira
-40.690524 -6.207681 Parambu
-38.084693 -5.143921 Limoeiro do Norte
-39.713367 -5.437763 Pedra Branca
-39.070724 -7.82163 Penaforte
-39.269159 -3.792736 Pentecoste
-40.342271 -3.523645 Massapê
-38.462397 -6.035761 Pereiro
-38.770786 -7.385974 Mauriti
-40.920533 -4.746717 Poranga
-39.114028 -7.522647 Porteiras
-38.157804 -5.71287 Potiretama
-39.015474 -4.966301 Quixadá
-39.288947 -5.190672 Quixeramobim
-38.727719 -4.215873 Redenção
-40.453106 -3.539741 Meruoca
-37.972086 -4.926727 Russas
-38.937829 -7.297492 Milagres
-40.211827 -3.461435 Santana do Acaraú
-40.152305 -4.326081 Santa Quitéria
-39.187483 -5.672525 Milhã
-39.239123 -3.66976 São Luís do Curu
-39.370369 -5.582444 Senador Pompeu
-40.34821 -3.689133 Sobral
-39.01072 -5.718936 Solonópole
-40.319593 -4.831364 Tamboril
-39.753048 -6.678376 Tarrafas
-40.296802 -5.985853 Tauá
-39.268126 -3.269323 Trairi
-39.510677 -3.623165 Uruburetama
-40.56276 -3.308194 Uruoca
-39.294155 -6.782642 Várzea Alegre
-41.091554 -3.566703 Viçosa do Ceará
-39.143046 -7.235219 Missão Velha
-40.677577 -3.463112 Moraújo
-40.123275 -3.234258 Morrinhos
-38.995133 -4.302938 Mulungu
-38.905264 -6.251816 Orós
-38.618296 -3.978396 Pacatuba
-38.922011 -4.224918 Pacoti
-37.780997 -4.831508 Jaguaruana
-40.698885 -3.983272 Pacujá
-39.453958 -4.043507 General Sampaio
-38.389563 -3.899293 Aquiraz
-40.135894 -7.213195 Araripe
-37.965549 -4.736722 Palhano
-39.047117 -4.412291 Aratuba
-38.844601 -4.138308 Palmácia
-39.030028 -3.41436 Paracuru
-39.147868 -3.437987 Paraipaba
-39.30208 -7.298203 Barbalha
-39.241691 -4.088146 Paramoti
-38.306118 -4.015839 Pindoretama
-39.417017 -5.800251 Piquet Carneiro
-40.64418 -4.239218 Pires Ferreira
-40.023292 -7.09154 Potengi
-39.307593 -7.196207 Juazeiro do Norte
-41.13585 -3.020514 Barroquinha
-39.28915 -6.362806 Iguatu
-40.700217 -5.842496 Quiterianópolis
-39.201067 -6.246369 Quixelô
-37.9802 -5.071482 Quixeré
-40.575915 -4.141911 Reriutaba
-39.90173 -6.534595 Saboeiro
-40.450013 -7.28398 Salitre
-39.730161 -7.176125 Santana do Cariri
-40.859572 -4.047131 São Benedito
-38.972646 -3.605149 São Gonçalo do Amarante
-38.269366 -5.275164 São João do Jaguaribe
-40.4662 -3.35305 Senador Sá
-38.128175 -5.243527 Tabuleiro do Norte
-39.579866 -3.988307 Tejuçuoca
-40.992286 -3.729645 Tianguá
-39.429656 -3.584132 Tururu
-40.920437 -3.854479 Ubajara
-38.700798 -6.638926 Umari
-39.346513 -3.676541 Umirim
-40.474083 -4.193871 Varjota
-39.04159 -7.345879 Abaiara
-38.705532 -4.22083 Acarape
-40.547867 -3.585369 Alcântaras
-38.274318 -5.508941 Alto Santo
-39.828816 -3.360166 Amontada
-39.98697 -6.769193 Antonina do Norte
-39.43593 -3.945057 Apuiarés
-40.83099 -4.745667 Ararendá
-40.165285 -6.316499 Arneiroz
-38.974221 -6.933487 Aurora
-38.713376 -6.719447 Baixio
-38.774133 -7.171879 Barro
-38.881206 -4.325983 Baturité
-40.167127 -3.049964 Bela Cruz
-38.979911 -7.484686 Brejo Santo
-40.854362 -2.900499 Camocim
-40.368678 -7.067611 Campos Sales
-38.904842 -4.455688 Capistrano
-40.476028 -3.948584 Cariré
-39.28276 -7.028076 Caririaçu
-40.941304 -4.159846 Carnaubal
-41.24346 -3.035708 Chaval
-40.658656 -3.541496 Coreaú
-40.118306 -2.887689 Acaraú
-39.448042 -6.089114 Acopiara
-40.11782 -6.571216 Aiuaba
-39.748055 -6.988047 Altaneira
-37.767894 -4.558259 Aracati
-38.812512 -4.36872 Aracoiaba
-39.868872 -6.866897 Assaré
-38.913175 -5.304544 Banabuiú
-40.653635 -5.167683 Crateús
-39.410299 -7.215303 Crato
-40.902228 -4.404805 Croatá
-40.175981 -2.918128 Cruz
-39.25701 -5.914848 Deputado Irapuan Pinheiro
-38.346113 -6.027508 Ererê
-40.818019 -3.755572 Frecheirinha
-40.749026 -4.044215 Graça
-40.385225 -3.917868 Groaíras
-38.640372 -4.040571 Guaiúba
-40.747588 -4.158136 Guaraciaba do Norte
-38.932044 -4.262477 Guaramiranga
-40.891147 -3.924025 Ibiapina
-37.353062 -4.712063 Icapuí
-40.753705 -4.897636 Ipaporanga